Data Visualisation
…
Items in red we’ll cover this today. In blue will have to wait for a future workshop.

Visualising Amounts

barplot

dot plot

lollipop plot

Bar Plots

diamonds

# A tibble: 53,940 × 10
   carat cut       color clarity depth table price     x     y     z
   <dbl> <ord>     <ord> <ord>   <dbl> <dbl> <int> <dbl> <dbl> <dbl>
 1  0.23 Ideal     E     SI2      61.5    55   326  3.95  3.98  2.43
 2  0.21 Premium   E     SI1      59.8    61   326  3.89  3.84  2.31
 3  0.23 Good      E     VS1      56.9    65   327  4.05  4.07  2.31
 4  0.29 Premium   I     VS2      62.4    58   334  4.2   4.23  2.63
 5  0.31 Good      J     SI2      63.3    58   335  4.34  4.35  2.75
 6  0.24 Very Good J     VVS2     62.8    57   336  3.94  3.96  2.48
 7  0.24 Very Good I     VVS1     62.3    57   336  3.95  3.98  2.47
 8  0.26 Very Good H     SI1      61.9    55   337  4.07  4.11  2.53
 9  0.22 Fair      E     VS2      65.1    61   337  3.87  3.78  2.49
10  0.23 Very Good H     VS1      59.4    61   338  4     4.05  2.39
# ℹ 53,930 more rows
…
density plots

boxplot

violin plot

ridge plots

basketball <- read_csv("https://raw.githubusercontent.com/eugene100hickey/ATU-2023/main/week-05/data/basketball.csv")

Histogram

basketball

# A tibble: 3,366 × 8
   name            year_start year_end position height weight birth_date college
   <chr>                <dbl>    <dbl> <chr>     <dbl>  <dbl> <chr>      <chr>  
 1 Kareem Abdul-J…       1970     1989 C          218.  102.  April 16,… Univer…
 2 Mahmoud Abdul-…       1991     2001 G          185.   73.5 March 9, … Louisi…
 3 Tariq Abdul-Wa…       1998     2003 F          198.  101.  November … San Jo…
 4 Shareef Abdur-…       1997     2008 F          206.  102.  December … Univer…
 5 Tom Abernethy         1977     1981 F          201.   99.8 May 6, 19… Indian…
 6 Forest Able           1957     1957 G          190.   81.6 July 27, … Wester…
 7 John Abramovic        1947     1948 F          190.   88.5 February … Salem …
 8 Alex Acker            2006     2009 G          196.   83.9 January 2… Pepper…
 9 Don Ackerman          1954     1954 G          183.   83.0 September… Long I…
10 Bud Acton             1968     1968 F          198.   95.3 January 1… Hillsd…
# ℹ 3,356 more rows
…
Histogram

basketball

# A tibble: 3,366 × 8
   name            year_start year_end position height weight birth_date college
   <chr>                <dbl>    <dbl> <chr>     <dbl>  <dbl> <chr>      <chr>  
 1 Kareem Abdul-J…       1970     1989 C          218.  102.  April 16,… Univer…
 2 Mahmoud Abdul-…       1991     2001 G          185.   73.5 March 9, … Louisi…
 3 Tariq Abdul-Wa…       1998     2003 F          198.  101.  November … San Jo…
 4 Shareef Abdur-…       1997     2008 F          206.  102.  December … Univer…
 5 Tom Abernethy         1977     1981 F          201.   99.8 May 6, 19… Indian…
 6 Forest Able           1957     1957 G          190.   81.6 July 27, … Wester…
 7 John Abramovic        1947     1948 F          190.   88.5 February … Salem …
 8 Alex Acker            2006     2009 G          196.   83.9 January 2… Pepper…
 9 Don Ackerman          1954     1954 G          183.   83.0 September… Long I…
10 Bud Acton             1968     1968 F          198.   95.3 January 1… Hillsd…
# ℹ 3,356 more rows
…
Density Plot

basketball

# A tibble: 3,366 × 8
   name            year_start year_end position height weight birth_date college
   <chr>                <dbl>    <dbl> <chr>     <dbl>  <dbl> <chr>      <chr>  
 1 Kareem Abdul-J…       1970     1989 C          218.  102.  April 16,… Univer…
 2 Mahmoud Abdul-…       1991     2001 G          185.   73.5 March 9, … Louisi…
 3 Tariq Abdul-Wa…       1998     2003 F          198.  101.  November … San Jo…
 4 Shareef Abdur-…       1997     2008 F          206.  102.  December … Univer…
 5 Tom Abernethy         1977     1981 F          201.   99.8 May 6, 19… Indian…
 6 Forest Able           1957     1957 G          190.   81.6 July 27, … Wester…
 7 John Abramovic        1947     1948 F          190.   88.5 February … Salem …
 8 Alex Acker            2006     2009 G          196.   83.9 January 2… Pepper…
 9 Don Ackerman          1954     1954 G          183.   83.0 September… Long I…
10 Bud Acton             1968     1968 F          198.   95.3 January 1… Hillsd…
# ℹ 3,356 more rows
…
Boxplot

basketball

# A tibble: 3,366 × 8
   name            year_start year_end position height weight birth_date college
   <chr>                <dbl>    <dbl> <chr>     <dbl>  <dbl> <chr>      <chr>  
 1 Kareem Abdul-J…       1970     1989 C          218.  102.  April 16,… Univer…
 2 Mahmoud Abdul-…       1991     2001 G          185.   73.5 March 9, … Louisi…
 3 Tariq Abdul-Wa…       1998     2003 F          198.  101.  November … San Jo…
 4 Shareef Abdur-…       1997     2008 F          206.  102.  December … Univer…
 5 Tom Abernethy         1977     1981 F          201.   99.8 May 6, 19… Indian…
 6 Forest Able           1957     1957 G          190.   81.6 July 27, … Wester…
 7 John Abramovic        1947     1948 F          190.   88.5 February … Salem …
 8 Alex Acker            2006     2009 G          196.   83.9 January 2… Pepper…
 9 Don Ackerman          1954     1954 G          183.   83.0 September… Long I…
10 Bud Acton             1968     1968 F          198.   95.3 January 1… Hillsd…
# ℹ 3,356 more rows
…
Violin Plot

basketball

# A tibble: 3,366 × 8
   name            year_start year_end position height weight birth_date college
   <chr>                <dbl>    <dbl> <chr>     <dbl>  <dbl> <chr>      <chr>  
 1 Kareem Abdul-J…       1970     1989 C          218.  102.  April 16,… Univer…
 2 Mahmoud Abdul-…       1991     2001 G          185.   73.5 March 9, … Louisi…
 3 Tariq Abdul-Wa…       1998     2003 F          198.  101.  November … San Jo…
 4 Shareef Abdur-…       1997     2008 F          206.  102.  December … Univer…
 5 Tom Abernethy         1977     1981 F          201.   99.8 May 6, 19… Indian…
 6 Forest Able           1957     1957 G          190.   81.6 July 27, … Wester…
 7 John Abramovic        1947     1948 F          190.   88.5 February … Salem …
 8 Alex Acker            2006     2009 G          196.   83.9 January 2… Pepper…
 9 Don Ackerman          1954     1954 G          183.   83.0 September… Long I…
10 Bud Acton             1968     1968 F          198.   95.3 January 1… Hillsd…
# ℹ 3,356 more rows
…
Ridge Plot

gapminder::gapminder

# A tibble: 1,704 × 6
   country     continent  year lifeExp      pop gdpPercap
   <fct>       <fct>     <int>   <dbl>    <int>     <dbl>
 1 Afghanistan Asia       1952    28.8  8425333      779.
 2 Afghanistan Asia       1957    30.3  9240934      821.
 3 Afghanistan Asia       1962    32.0 10267083      853.
 4 Afghanistan Asia       1967    34.0 11537966      836.
 5 Afghanistan Asia       1972    36.1 13079460      740.
 6 Afghanistan Asia       1977    38.4 14880372      786.
 7 Afghanistan Asia       1982    39.9 12881816      978.
 8 Afghanistan Asia       1987    40.8 13867957      852.
 9 Afghanistan Asia       1992    41.7 16317921      649.
10 Afghanistan Asia       1997    41.8 22227415      635.
# ℹ 1,694 more rows
…
